{
    "_versionMajor": 0,
    "_versionMinor": 3,
    "boundsCenter": {
        "x": 0,
        "y": 0,
        "z": 2.2930264472961426
    },
    "boundsSize": {
        "x": 5.662166118621826,
        "y": 3.18613338470459,
        "z": 1.823777437210083
    },
    "format": "perpixel",
    "numAngles": 1,
    "perspectives": [
        {
            "clipEpsilon": 0.0027415624354034662,
            "crop": {
                "w": 0.5443925261497498,
                "x": 0.15420560538768768,
                "y": 0.22429905831813812,
                "z": 0.672897219657898
            },
            "depthFocalLength": {
                "x": 1086.7637939453125,
                "y": 1086.366455078125
            },
            "depthImageSize": {
                "x": 1920.0,
                "y": 1080.0
            },
            "depthPrincipalPoint": {
                "x": 963.4728393554688,
                "y": 528.2489013671875
            },
            "extrinsics": {
                "e00": 0.9999830722808838,
                "e01": -0.0026638037525117397,
                "e02": -0.0051744612865149975,
                "e03": 0.05159127339720726,
                "e10": 0.0026623806916177273,
                "e11": 0.9999964237213135,
                "e12": -0.00028187301359139383,
                "e13": 0.00013830374518875033,
                "e20": 0.005175193306058645,
                "e21": 0.00026809185510501266,
                "e22": 0.9999865889549255,
                "e23": 0.0002509779005777091,
                "e30": 0.0,
                "e31": 0.0,
                "e32": 0.0,
                "e33": 1.0
            },
            "farClip": 3.2049150466918945,
            "nearClip": 1.3811376094818115
        }
    ],
    "textureHeight": 1184,
    "textureWidth": 1296
}
